…
``` r
anole_lizard
```

    ## # A tibble: 88,020 x 9
    ##    human_symbol anole_lizard_symbol human_ensembl   anole_lizard_ensembl human_entrez anole_lizard_entrez human_name                        anole_lizard_name                   support                                                   
    ##    <chr>        <chr>               <chr>           <chr>                       <int>               <int> <chr>                             <chr>                               <chr>                                                     
    ##  1 7SK          7SK                 ENSG00000273591 ENSACAG00000021439             NA                  NA 7SK RNA [Source:RFAM;Acc:RF00100] 7SK RNA [Source:RFAM;Acc:RF00100]   Ensembl                                                   
    ##  2 7SK          7SK                 ENSG00000274303 ENSACAG00000021326             NA                  NA 7SK RNA [Source:RFAM;Acc:RF00100] 7SK RNA [Source:RFAM;Acc:RF00100]   Ensembl                                                   
    ##  3 7SK          7SK                 ENSG00000275933 ENSACAG00000021439             NA                  NA 7SK RNA [Source:RFAM;Acc:RF00100] 7SK RNA [Source:RFAM;Acc:RF00100]   Ensembl                                                   
    ##  4 7SK          7SK                 ENSG00000276626 ENSACAG00000021439             NA                  NA 7SK RNA [Source:RFAM;Acc:RF00100] 7SK RNA [Source:RFAM;Acc:RF00100]   Ensembl                                                   
    ##  5 7SK          7SK                 ENSG00000277313 ENSACAG00000021439             NA                  NA 7SK RNA [Source:RFAM;Acc:RF00100] 7SK RNA [Source:RFAM;Acc:RF00100]   Ensembl                                                   
    ##  6 7SK          7SK                 ENSG00000271394 ENSACAG00000021525             NA                  NA 7SK RNA [Source:RFAM;Acc:RF00100] 7SK RNA [Source:RFAM;Acc:RF00100]   Ensembl                                                   
    ##  7 A1BG         <NA>                ENSG00000121410 ENSACAG00000016968              1                  NA alpha-1-B glycoprotein            <NA>                                Treefam,Panther                                           
    ##  8 A1BG         LOC103280220        ENSG00000121410 ENSACAG00000022270              1           103280220 alpha-1-B glycoprotein            immunoglobulin superfamily member 1 Ensembl,Panther                                           
    ##  9 A1BG         <NA>                ENSG00000121410 ENSACAG00000027060              1                  NA alpha-1-B glycoprotein            <NA>                                Panther,OrthoDB                                           
    ## 10 A1CF         a1cf                ENSG00000148584 ENSACAG00000015269          29974           100553455 APOBEC1 complementation factor    APOBEC1 complementation factor      Inparanoid,EggNOG,NCBI,OMA,Treefam,Ensembl,Panther,OrthoDB
    ## # ... with 88,010 more rows

``` r
c.elegans
```

    ## # A tibble: 65,161 x 9
    ##    human_symbol c.elegans_symbol human_ensembl   c.elegans_ensembl human_entrez c.elegans_entrez human_name                                      c.elegans_name                        support                                                             
    ##    <chr>        <chr>            <chr>           <chr>                    <int>            <int> <chr>                                           <chr>                                 <chr>                                                               
    ##  1 A1CF         hrp-2            ENSG00000148584 WBGene00002000           29974           173086 APOBEC1 complementation factor                  human HnRNP A1 homolog                Ensembl,OrthoDB                                                     
    ##  2 A2M          F13D2.1          ENSG00000175899 WBGene00008735               2           181305 alpha-2-macroglobulin                           hypothetical protein                  Panther                                                             
    ##  3 A2M          tep-1            ENSG00000175899 WBGene00013969               2           173367 alpha-2-macroglobulin                           TEP (ThiolEster containing Protein)   EggNOG                                                              
    ##  4 A2ML1        F13D2.1          ENSG00000166535 WBGene00008735          144568           181305 alpha-2-macroglobulin like 1                    hypothetical protein                  Panther                                                             
    ##  5 A4GALT       fbxb-7           ENSG00000128274 WBGene00012492           53947           189498 alpha 1,4-galactosyltransferase (P blood group) F-box B protein                       OrthoDB                                                             
    ##  6 A4GALT       Y20C6A.4         ENSG00000128274 WBGene00077495           53947          6418791 alpha 1,4-galactosyltransferase (P blood group) hypothetical protein                  OrthoDB                                                             
    ##  7 A4GNT        fbxb-7           ENSG00000118017 WBGene00012492           51146           189498 alpha-1,4-N-acetylglucosaminyltransferase       F-box B protein                       OrthoDB                                                             
    ##  8 A4GNT        Y20C6A.4         ENSG00000118017 WBGene00077495           51146          6418791 alpha-1,4-N-acetylglucosaminyltransferase       hypothetical protein                  OrthoDB                                                             
    ##  9 AACS         sur-5            ENSG00000081760 WBGene00006351           65985           180992 acetoacetyl-CoA synthetase                      Acetoacetyl-CoA synthetase            Inparanoid,HomoloGene,OMA,OrthoMCL,PhylomeDB,Ensembl,Panther,OrthoDB
    ## 10 AADAC        trcs-1           ENSG00000114771 WBGene00009186              13           177791 arylacetamide deacetylase                       TRansport of membrane to Cell Surface Ensembl,OMA,Panther,OrthoDB                                         
    ## # ... with 65,151 more rows

``` r
chicken
```

    ## # A tibble: 46,422 x 9
    ##    human_symbol chicken_symbol human_ensembl   chicken_ensembl    human_entrez chicken_entrez human_name                                 chicken_name                                                       support        
    ##    <chr>        <chr>          <chr>           <chr>                     <int>          <int> <chr>                                      <chr>                                                              <chr>          
    ##  1 5S_rRNA      5S_rRNA        ENSG00000277411 ENSGALG00000025601           NA             NA 5S ribosomal RNA [Source:RFAM;Acc:RF00001] 5S ribosomal RNA [Source:RFAM;Acc:RF00001]                         Ensembl        
    ##  2 A1BG         IGSF1L3        ENSG00000121410 ENSGALG00000030005            1         419114 alpha-1-B glycoprotein                     immunoglobulin superfamily member 1-like 3                         Ensembl,Panther
    ##  3 A1BG         CHIR-B5        ENSG00000121410 ENSGALG00000029309            1         430678 alpha-1-B glycoprotein                     immunoglobulin-like receptor CHIR-B5                               Panther        
    ##  4 A1BG         IGSF1L9        ENSG00000121410 ENSGALG00000045406            1         431060 alpha-1-B glycoprotein                     immunoglobulin superfamily member 1-like 9                         Panther        
    ##  5 A1BG         PGP6L          ENSG00000121410 ENSGALG00000037972            1         431128 alpha-1-B glycoprotein                     platelet glycoprotein VI-like                                      Panther        
    ##  6 A1BG         CHIR-B4        ENSG00000121410 ENSGALG00000034411            1         768447 alpha-1-B glycoprotein                     immunoglobulin-like receptor CHIR-B4                               Panther        
    ##  7 A1BG         CHIR-A2        ENSG00000121410 ENSGALG00000031100            1         770673 alpha-1-B glycoprotein                     immunoglobulin-like receptor CHIR-A2                               Panther        
    ##  8 A1BG         LILRA6L1       ENSG00000121410 ENSGALG00000040094            1         776202 alpha-1-B glycoprotein                     leukocyte immunoglobulin-like receptor subfamily A member 6-like 1 Panther        
    ##  9 A1BG         CHIR-B2        ENSG00000121410 ENSGALG00000033483            1         776711 alpha-1-B glycoprotein                     immunoglobulin-like receptor CHIR-B2                               Panther        
    ## 10 A1BG         CHIR-AB-487    ENSG00000121410 ENSGALG00000038888            1      100313497 alpha-1-B glycoprotein                     immunoglobulin-like receptor CHIR-AB-487                           Panther        
    ## # ... with 46,412 more rows

``` r
chimpanzee
```

    ## # A tibble: 42,990 x 9
    ##    human_symbol chimpanzee_symbol human_ensembl   chimpanzee_ensembl human_entrez chimpanzee_entrez human_name                                   chimpanzee_name                              support                                                                      
    ##    <chr>        <chr>             <chr>           <chr>                     <int>             <int> <chr>                                        <chr>                                        <chr>                                                                        
    ##  1 5S_rRNA      5S_rRNA           ENSG00000276861 ENSPTRG00000035592           NA                NA 5S ribosomal RNA [Source:RFAM;Acc:RF00001]   5S ribosomal RNA [Source:RFAM;Acc:RF00001]   Ensembl                                                                      
    ##  2 5_8S_rRNA    5_8S_rRNA         ENSG00000275877 ENSPTRG00000050369           NA                NA 5.8S ribosomal RNA [Source:RFAM;Acc:RF00002] 5.8S ribosomal RNA [Source:RFAM;Acc:RF00002] Ensembl                                                                      
    ##  3 7SK          7SK               ENSG00000274303 ENSPTRG00000050574           NA                NA 7SK RNA [Source:RFAM;Acc:RF00100]            7SK RNA [Source:RFAM;Acc:RF00100]            Ensembl                                                                      
    ##  4 A1BG         A1BG              ENSG00000121410 ENSPTRG00000011588            1            742390 alpha-1-B glycoprotein                       alpha-1-B glycoprotein                       HomoloGene,OMA,Treefam,Panther,EggNOG,OrthoDB,NCBI,Ensembl,OrthoMCL          
    ##  5 A1CF         A1CF              ENSG00000148584 ENSPTRG00000002508        29974            466076 APOBEC1 complementation factor               APOBEC1 complementation factor               PhylomeDB,OMA,HomoloGene,Treefam,Panther,EggNOG,OrthoDB,Ensembl,NCBI,OrthoMCL
    ##  6 A1CF         RBM47             ENSG00000148584 ENSPTRG00000016006        29974            461182 APOBEC1 complementation factor               RNA binding motif protein 47                 OrthoDB                                                                      
    ##  7 A1CF         RBM46             ENSG00000148584 ENSPTRG00000016538        29974            473494 APOBEC1 complementation factor               RNA binding motif protein 46                 OrthoDB                                                                      
    ##  8 A2M          A2M               ENSG00000175899 ENSPTRG00000004650            2            465372 alpha-2-macroglobulin                        alpha-2-macroglobulin                        OMA,HomoloGene,Panther,Treefam,OrthoDB,NCBI,Ensembl                          
    ##  9 A2M          PZP               ENSG00000175899 ENSPTRG00000004652            2            465371 alpha-2-macroglobulin                        PZP, alpha-2-macroglobulin like              OrthoDB,OrthoMCL                                                             
    ## 10 A2M          A2ML1             ENSG00000175899 ENSPTRG00000004645            2            465375 alpha-2-macroglobulin                        alpha-2-macroglobulin like 1                 OrthoMCL                                                                     
    ## # ... with 42,980 more rows

``` r
cow
```

    ## # A tibble: 40,817 x 9
    ##    human_symbol cow_symbol human_ensembl   cow_ensembl        human_entrez cow_entrez human_name                                   cow_name                                     support
    ##    <chr>        <chr>      <chr>           <chr>                     <int>      <int> <chr>                                        <chr>                                        <chr>  
    ##  1 5S_rRNA      5S_rRNA    ENSG00000277411 ENSBTAG00000029491           NA         NA 5S ribosomal RNA [Source:RFAM;Acc:RF00001]   5S ribosomal RNA [Source:RFAM;Acc:RF00001]   Ensembl
    ##  2 5S_rRNA      5S_rRNA    ENSG00000277488 ENSBTAG00000044984           NA         NA 5S ribosomal RNA [Source:RFAM;Acc:RF00001]   5S ribosomal RNA [Source:RFAM;Acc:RF00001]   Ensembl
    ##  3 5_8S_rRNA    5_8S_rRNA  ENSG00000276871 ENSBTAG00000037637           NA         NA 5.8S ribosomal RNA [Source:RFAM;Acc:RF00002] 5.8S ribosomal RNA [Source:RFAM;Acc:RF00002] Ensembl
    ##  4 5_8S_rRNA    5_8S_rRNA  ENSG00000276871 ENSBTAG00000045481           NA         NA 5.8S ribosomal RNA [Source:RFAM;Acc:RF00002] 5.8S ribosomal RNA [Source:RFAM;Acc:RF00002] Ensembl
    ##  5 5_8S_rRNA    5_8S_rRNA  ENSG00000276871 ENSBTAG00000046680           NA         NA 5.8S ribosomal RNA [Source:RFAM;Acc:RF00002] 5.8S ribosomal RNA [Source:RFAM;Acc:RF00002] Ensembl
    ##  6 5_8S_rRNA    5_8S_rRNA  ENSG00000283274 ENSBTAG00000037637           NA         NA 5.8S ribosomal RNA [Source:RFAM;Acc:RF00002] 5.8S ribosomal RNA [Source:RFAM;Acc:RF00002] Ensembl
    ##  7 5_8S_rRNA    5_8S_rRNA  ENSG00000283274 ENSBTAG00000045481           NA         NA 5.8S ribosomal RNA [Source:RFAM;Acc:RF00002] 5.8S ribosomal RNA [Source:RFAM;Acc:RF00002] Ensembl
    ##  8 5_8S_rRNA    5_8S_rRNA  ENSG00000283274 ENSBTAG00000046680           NA         NA 5.8S ribosomal RNA [Source:RFAM;Acc:RF00002] 5.8S ribosomal RNA [Source:RFAM;Acc:RF00002] Ensembl
    ##  9 5_8S_rRNA    5_8S_rRNA  ENSG00000283291 ENSBTAG00000037637           NA         NA 5.8S ribosomal RNA [Source:RFAM;Acc:RF00002] 5.8S ribosomal RNA [Source:RFAM;Acc:RF00002] Ensembl
    ## 10 5_8S_rRNA    5_8S_rRNA  ENSG00000283291 ENSBTAG00000045481           NA         NA 5.8S ribosomal RNA [Source:RFAM;Acc:RF00002] 5.8S ribosomal RNA [Source:RFAM;Acc:RF00002] Ensembl
    ## # ... with 40,807 more rows

``` r
dog
```

    ## # A tibble: 38,902 x 9
    ##    human_symbol dog_symbol human_ensembl   dog_ensembl        human_entrez dog_entrez human_name                                 dog_name                                   support                                                                       
    ##    <chr>        <chr>      <chr>           <chr>                     <int>      <int> <chr>                                      <chr>                                      <chr>                                                                         
    ##  1 5S_rRNA      5S_rRNA    ENSG00000277488 ENSCAFG00000027109           NA         NA 5S ribosomal RNA [Source:RFAM;Acc:RF00001] 5S ribosomal RNA [Source:RFAM;Acc:RF00001] Ensembl                                                                       
    ##  2 A1BG         A1BG       ENSG00000121410 ENSCAFG00000002367            1     484230 alpha-1-B glycoprotein                     alpha-1-B glycoprotein                     Inparanoid,Ensembl,HomoloGene,Panther,OMA,Treefam,NCBI,EggNOG,OrthoMCL,OrthoDB
    ##  3 A1CF         A1CF       ENSG00000148584 ENSCAFG00000015581        29974     477581 APOBEC1 complementation factor             APOBEC1 complementation factor             Inparanoid,Ensembl,HomoloGene,OMA,Panther,Treefam,NCBI,EggNOG,OrthoMCL,OrthoDB
    ##  4 A2M          A2ML1      ENSG00000175899 ENSCAFG00000013853            2     486697 alpha-2-macroglobulin                      alpha-2-macroglobulin like 1               OrthoMCL                                                                      
    ##  5 A2M          LOC477699  ENSG00000175899 ENSCAFG00000025567            2     477699 alpha-2-macroglobulin                      alpha-2-macroglobulin                      Ensembl,HomoloGene,Panther,OMA,Treefam,OrthoMCL,OrthoDB                       
    ##  6 A2M          LOC611455  ENSG00000175899 ENSCAFG00000013748            2     611455 alpha-2-macroglobulin                      ovostatin homolog 2-like                   OrthoMCL                                                                      
    ##  7 A2M          LOC611458  ENSG00000175899 ENSCAFG00000024781            2     611458 alpha-2-macroglobulin                      pregnancy zone protein-like                OrthoMCL                                                                      
    ##  8 A2ML1        A2ML1      ENSG00000166535 ENSCAFG00000013853       144568     486697 alpha-2-macroglobulin like 1               alpha-2-macroglobulin like 1               Inparanoid,Ensembl,HomoloGene,Panther,OMA,Treefam,NCBI,EggNOG,OrthoMCL,OrthoDB
    ##  9 A2ML1        LOC611455  ENSG00000166535 ENSCAFG00000013748       144568     611455 alpha-2-macroglobulin like 1               ovostatin homolog 2-like                   OrthoMCL                                                                      
    ## 10 A2ML1        LOC611458  ENSG00000166535 ENSCAFG00000024781       144568     611458 alpha-2-macroglobulin like 1               pregnancy zone protein-like                OrthoMCL                                                                      
    ## # ... with 38,892 more rows
…
